%YAML 1.1
%TAG !u! tag:unity3d.com,2011:
--- !u!162 &1
EditorUserSettings:
  m_ObjectHideFlags: 0
  serializedVersion: 4
  m_ConfigSettings:
    RecentlyUsedScenePath-0:
      value: 224247031146466b011b0b2b1e301039181c570f34292b20212c5216fae13928eee278fce9332b25
      flags: 0
    RecentlyUsedScenePath-1:
      value: 22424703114646680e0b0227036c6c111b07142f1f2b233e2867083debf42d
      flags: 0
    RecentlyUsedScenePath-2:
      value: 224247031146466f041e1f6d32264b0413052c333c21283719200d7cd1e33136e7f479dae43f31397717e1351027
      flags: 0
    RecentlyUsedScenePath-3:
      value: 224247031146466f041e1f6d250a6f1111120b072d2627372824183df6af0111d2e631ecf4173e323805ea3101301571e704001fef
      flags: 0
    RecentlyUsedScenePath-4:
      value: 224247031146466f041e1f6d342a4c11141b1d0f3a2d28241e300e27e7ed7b0be1e238ecf4750c3f3c0cea721130082beb
      flags: 0
    RecentlyUsedScenePath-5:
      value: 224247031146466f041e1f6d250a6f1111120b072d2627372824183df6af073be7e933faa80f160c3805ea2f293f0f3ef50f040ef81f441e1f07e917
      flags: 0
    RecentlyUsedScenePath-6:
      value: 224247031146466f041e1f6d3e26482213140c072d3b2d03283d093aece72777cce221dbe2392b113811e40f012a1536fc0d1a45e305031f08
      flags: 0
    RecentlyUsedScenePath-7:
      value: 224247031146466f041e1f6d22264c15023a1d3e2427227f1f2c0e36f6cd312ceae832a7f234362820
      flags: 0
    RecentlyUsedScenePath-8:
      value: 224247031146466f041e1f6d37265115041614192f2d2835633c133af6f9
      flags: 0
    vcSharedLogLevel:
      value: 0d5e400f0650
      flags: 0
  m_VCAutomaticAdd: 1
  m_VCDebugCom: 0
  m_VCDebugCmd: 0
  m_VCDebugOut: 0
  m_SemanticMergeMode: 2
  m_VCShowFailedCheckout: 1
  m_VCOverwriteFailedCheckoutAssets: 1
  m_VCProjectOverlayIcons: 1
  m_VCHierarchyOverlayIcons: 1
  m_VCOtherOverlayIcons: 1
  m_VCAllowAsyncUpdate: 1
